<?xml version="1.0" encoding="utf-8"?>
<svg version="1.1" id="Слой_1" xmlns="http://www.w3.org/2000/svg" xmlns:xlink="http://www.w3.org/1999/xlink" x="0px" y="0px"
	 viewBox="0 0 15 9" enable-background="new 0 0 15 9" xml:space="preserve">
<path opacity="0.3" fill="#010202" d="M7.4,8.5h0.9c0,0,0.3,0,0.4-0.2C8.8,8.2,8.8,8,8.8,8s0-1.2,0.5-1.4c0.6-0.2,1.3,1.2,2,1.7
	c0.6,0.4,1,0.3,1,0.3l2,0c0,0,1.1-0.1,0.6-0.9c0-0.1-0.3-0.6-1.5-1.7c-1.3-1.2-1.1-1,0.4-3c0.9-1.2,1.3-2,1.2-2.3
	c-0.1-0.3-0.8-0.2-0.8-0.2l-2.3,0c0,0-0.2,0-0.3,0.1c-0.1,0.1-0.2,0.2-0.2,0.2s-0.4,1-0.8,1.8c-1,1.7-1.4,1.8-1.6,1.7
	c-0.4-0.2-0.3-1-0.3-1.5C8.8,1,9,0.3,8.3,0.1C8,0,7.9,0,7.2,0C6.4,0,5.7,0,5.4,0.2C5.1,0.3,4.9,0.6,5,0.6c0.1,0,0.5,0.1,0.7,0.3
	c0.2,0.3,0.2,1,0.2,1s0.1,2-0.3,2.2C5.3,4.3,4.9,4,4,2.4C3.5,1.6,3.2,0.8,3.2,0.8S3.1,0.6,3,0.5C2.8,0.4,2.6,0.4,2.6,0.4l-2.1,0
	c0,0-0.3,0-0.4,0.1c-0.1,0.1,0,0.4,0,0.4s1.7,3.9,3.6,5.9C5.4,8.7,7.4,8.5,7.4,8.5L7.4,8.5z"/>

</svg>
