<?xml version="1.0" encoding="utf-8"?>
<svg version="1.1" id="Слой_1" xmlns="http://www.w3.org/2000/svg" xmlns:xlink="http://www.w3.org/1999/xlink" x="0px" y="0px"
	 viewBox="0 0 29 29" enable-background="new 0 0 29 29" xml:space="preserve">
<g>
	<path fill="none" stroke="#2e4352" stroke-width="2" stroke-miterlimit="10" d="M26.3,12.2H25c-0.3-1.1-0.7-2.1-1.2-3l0.9-0.9
		c0.7-0.7,0.7-1.7,0-2.4l-1.2-1.2c-0.3-0.3-0.8-0.5-1.2-0.5c-0.4,0-0.9,0.2-1.2,0.5l-0.9,0.9c-0.9-0.5-1.9-1-3-1.2V3.1
		c0-0.9-0.8-1.7-1.7-1.7h-1.7c-0.9,0-1.7,0.8-1.7,1.7v1.3c-1.1,0.3-2.1,0.7-3,1.2L8.3,4.7c-0.7-0.7-1.7-0.7-2.4,0L4.7,5.9
		c-0.7,0.7-0.7,1.7,0,2.4l0.9,0.9c-0.5,0.9-1,1.9-1.2,3H3.1c-0.9,0-1.7,0.8-1.7,1.7v1.7c0,0.9,0.8,1.7,1.7,1.7h1.3
		c0.3,1.1,0.7,2,1.2,3l-0.9,0.9c-0.7,0.7-0.7,1.7,0,2.4l1.2,1.2c0.3,0.3,0.7,0.5,1.2,0.5c0.4,0,0.9-0.2,1.2-0.5l0.9-0.9
		c0.9,0.5,1.9,1,3,1.2v1.3c0,0.9,0.8,1.7,1.7,1.7h1.7c0.9,0,1.7-0.8,1.7-1.7V25c1.1-0.3,2.1-0.7,3-1.2l0.9,0.9
		c0.3,0.3,0.7,0.5,1.2,0.5c0.4,0,0.9-0.2,1.2-0.5l1.2-1.2c0.7-0.7,0.7-1.7,0-2.4l-0.9-0.9c0.5-0.9,1-1.9,1.2-3h1.3
		c0.9,0,1.7-0.8,1.7-1.7v-1.7C28,12.9,27.2,12.2,26.3,12.2L26.3,12.2z M14.7,20.3c-3.1,0-5.6-2.5-5.6-5.6c0-3.1,2.5-5.6,5.6-5.6
		c3.1,0,5.5,2.5,5.5,5.6C20.3,17.8,17.8,20.3,14.7,20.3L14.7,20.3z M14.7,20.3"/>
	<path fill="none" stroke="#2e4352" stroke-width="2" stroke-miterlimit="10" d="M25.9-5.2"/>
</g>
</svg>
