<?xml version="1.0" encoding="utf-8"?>
<svg version="1.1" id="Слой_1" xmlns="http://www.w3.org/2000/svg" xmlns:xlink="http://www.w3.org/1999/xlink" x="0px" y="0px"
	 viewBox="0 0 140 166" enable-background="new 0 0 140 166" xml:space="preserve">
<g>
	<g>
		<g>
			<g>
				<path fill="#E66B50" d="M61.8,155.1c0,0-3.8,1.1-6.5-3.2c-1.5-2.3-4.4-10.6,6.6-8.8L61.8,155.1z"/>
				<path fill="#EF7D68" d="M61.8,155.1c0,0,3.8,1.1,6.6-3c1.5-2.3,4.7-10.5-6.5-9L61.8,155.1z"/>
			</g>
			<path fill="#008E87" d="M61.9,143.1c0,0-1.8-8.3,8.3-8.7C70.1,134.3,73.3,142.6,61.9,143.1z"/>
		</g>
		<g>
			<g>
				<path fill="#E66B50" d="M95,155.1c0,0-3.8,1.1-6.5-3.2c-1.5-2.3-4.4-10.6,6.6-8.8L95,155.1z"/>
				<path fill="#EF7D68" d="M95,155.1c0,0,3.8,1.1,6.6-3c1.5-2.3,4.7-10.5-6.5-9L95,155.1z"/>
			</g>
			<path fill="#008E87" d="M95.2,143.1c0,0-1.8-8.3,8.3-8.7C103.4,134.3,106.6,142.6,95.2,143.1z"/>
		</g>
		<g>
			<g>
				<path fill="#E66B50" d="M111.7,155.1c0,0-3.8,1.1-6.5-3.2c-1.5-2.3-4.4-10.6,6.6-8.8L111.7,155.1z"/>
				<path fill="#EF7D68" d="M111.7,155.1c0,0,3.8,1.1,6.6-3c1.5-2.3,4.7-10.5-6.5-9L111.7,155.1z"/>
			</g>
			<path fill="#008E87" d="M111.8,143.1c0,0-1.8-8.3,8.3-8.7C120,134.3,123.2,142.6,111.8,143.1z"/>
		</g>
		<g>
			<g>
				<path fill="#E66B50" d="M78.4,156.6c0,0-4.1,1.1-7-3.4c-1.6-2.5-4.8-11.4,7.1-9.5L78.4,156.6z"/>
				<path fill="#EF7D68" d="M78.4,156.6c0,0,4.1,1.2,7.1-3.2c1.6-2.5,5-11.3-6.9-9.6L78.4,156.6z"/>
			</g>
			<path fill="#00A09B" d="M78.5,143.7c0,0-1.9-8.9,8.9-9.4C87.4,134.3,90.8,143.2,78.5,143.7z"/>
		</g>
		<rect x="54.4" y="151.8" fill="#A45F54" width="65.1" height="14"/>
	</g>
	<g>
		<g>
			<path fill="#00A09B" d="M138.3,86.9c0,13.3-14.1,24.1-31.6,24.1h-9.5c-17.4,0-31.6-10.8-31.6-24.1V24.1C65.6,10.8,79.8,0,97.2,0
				h9.5c17.4,0,31.6,10.8,31.6,24.1V86.9z"/>
			<path fill="#008E87" d="M106.7,0H103v111h3.7c17.4,0,31.6-10.8,31.6-24.1V24.1C138.3,10.8,124.2,0,106.7,0z"/>
			<g>
				<path fill="#643624" d="M105.3,159c0,1.1-0.9,2-2,2l0,0c-1.1,0-2-0.9-2-2V33.1c0-1.1,0.9-2,2-2l0,0c1.1,0,2,0.9,2,2V159z"/>
				<path fill="#643624" d="M104.4,55.8c-0.2,0.2-1-0.1-1.7-0.7l0,0c-0.8-0.6-1.3-1.3-1.1-1.5l13.8-18c0.2-0.2,0.9,0.1,1.7,0.7l0,0
					c0.8,0.6,1.3,1.3,1.1,1.5L104.4,55.8z"/>
				<path fill="#643624" d="M105.2,84.5c-0.2,0.2-1-0.1-1.7-0.7l0,0c-0.8-0.6-1.3-1.3-1.1-1.5l13.8-18c0.2-0.2,0.9,0.1,1.7,0.7l0,0
					c0.8,0.6,1.3,1.3,1.1,1.5L105.2,84.5z"/>
				<path fill="#643624" d="M85.7,54.5c-0.2-0.2,0.2-0.9,0.9-1.6l0,0c0.7-0.7,1.4-1.1,1.6-0.9l15.8,16.2c0.2,0.2-0.2,0.9-0.9,1.6
					l0,0c-0.7,0.7-1.4,1.1-1.6,0.9L85.7,54.5z"/>
				<path fill="#643624" d="M86.1,85c-0.2-0.2,0.2-0.9,0.9-1.6l0,0c0.7-0.7,1.4-1.1,1.6-0.9l15.8,16.2c0.2,0.2-0.2,0.9-0.9,1.6l0,0
					c-0.7,0.7-1.4,1.1-1.6,0.9L86.1,85z"/>
			</g>
			<g>
				<g>
					<path fill="#E66B50" d="M125.5,71.6c0,0-5.2,1.4-8.9-4.3c-2-3.2-6-14.4,9-12L125.5,71.6z"/>
					<path fill="#EF7D68" d="M125.5,71.6c0,0,5.2,1.5,9-4.1c2.1-3.1,6.3-14.3-8.8-12.2L125.5,71.6z"/>
				</g>
				<path fill="#00A09B" d="M125.6,55.3c0,0-2.5-11.3,11.2-11.9C136.9,43.4,141.2,54.7,125.6,55.3z"/>
			</g>
			<g>
				<g>
					<path fill="#E66B50" d="M104.2,29.3c0,0-5.2,1.4-8.9-4.3c-2-3.2-6-14.4,9-12L104.2,29.3z"/>
					<path fill="#EF7D68" d="M104.2,29.3c0,0,5.2,1.5,9-4.1c2.1-3.1,6.3-14.3-8.8-12.2L104.2,29.3z"/>
				</g>
				<path fill="#00A09B" d="M104.4,13c0,0-2.5-11.3,11.2-11.9C115.6,1.1,119.9,12.4,104.4,13z"/>
			</g>
			<g>
				<g>
					<path fill="#E66B50" d="M79.2,58.1c0,0-5.2,1.4-8.9-4.3c-2-3.2-6-14.4,9-12L79.2,58.1z"/>
					<path fill="#EF7D68" d="M79.2,58.1c0,0,5.2,1.5,9-4.1c2.1-3.1,6.3-14.3-8.8-12.2L79.2,58.1z"/>
				</g>
				<path fill="#008E87" d="M79.3,41.7c0,0-2.5-11.3,11.2-11.9C90.6,29.8,94.9,41.1,79.3,41.7z"/>
			</g>
			<g>
				<g>
					<path fill="#E66B50" d="M124.7,41.3c0,0-5.2,1.4-8.9-4.3c-2-3.2-6-14.4,9-12L124.7,41.3z"/>
					<path fill="#EF7D68" d="M124.7,41.3c0,0,5.2,1.5,9-4.1c2.1-3.1,6.3-14.3-8.8-12.2L124.7,41.3z"/>
				</g>
				<path fill="#00A09B" d="M124.8,25c0,0-2.5-11.3,11.2-11.9C136.1,13.1,140.4,24.3,124.8,25z"/>
			</g>
		</g>
		<path fill="#643624" d="M80.1,165.7h47.1C127.2,165.7,105.6,147.4,80.1,165.7z"/>
	</g>
	<g>
		<path fill="#C45445" d="M42.4,90.6c0,0,17.5,6.3,16.9,18.7l-10,0.4c0,0,0.8-7.6-5.4-9.3C37.7,98.7,42.4,90.6,42.4,90.6z"/>
		<path fill="#C45445" d="M20.9,90.2c0,0-17.5,6.3-16.9,18.7l10,0.4c0,0-0.8-7.6,5.4-9.3C25.6,98.3,20.9,90.2,20.9,90.2z"/>
		<g>
			<g>
				<polygon fill="#643624" points="23.3,126.6 25,162.5 28.5,162.5 28,126.3 				"/>
				<path fill="#643624" d="M28.5,162.1H17.4c-1,0-1.8,0.8-1.8,1.8c0,1,0.8,1.8,1.8,1.8h11.1V162.1z"/>
			</g>
			<g>
				<polygon fill="#643624" points="42.7,126.6 40.9,162.5 37.5,162.5 37.9,126.3 				"/>
				<path fill="#643624" d="M37.7,162.1h11.1c1,0,1.8,0.8,1.8,1.8c0,1-0.8,1.8-1.8,1.8H37.7V162.1z"/>
			</g>
			<path fill="#643624" d="M15.1,126.8c0,0-3.4,6,17.6,6c21.1,0,18.5-6.4,18.5-6.4L15.1,126.8z"/>
		</g>
		<path fill="#EF7D68" d="M12.2,127h40c0,0,0.6-39.4-20.8-39.4C9.8,87.5,12.2,127,12.2,127z"/>
		<path fill="#C45445" d="M49.7,106.9c-2.6-9.8-7.8-19.4-18.4-19.4c-10.6,0-15.4,9.6-17.6,19.4H49.7z"/>
		<rect x="31.3" y="96.4" fill="#E66B50" width="1.3" height="30.6"/>
		<circle fill="#FFD46A" cx="31.7" cy="70.4" r="25.9"/>
		<path fill="#F7AA4B" d="M32,44.5v51.7c14.2-0.1,25.6-11.7,25.6-25.9C57.6,56.2,46.2,44.6,32,44.5z"/>
		<path fill="#643624" d="M54.7,55.5c-8-13.3-31.9-19.7-45.2,0c-6.7,9.9-2.8,21.8-2.8,21.8l0.1,0.1C7.4,81,9.7,99.5,33,99.1
			c22.3-0.4,24.1-21.8,24.1-21.8c-0.1,0.1-0.1,0.1-0.2,0.2C57.6,75,60,64.5,54.7,55.5z M42.5,79.3c0,0-2.3-5.7-10.5-6.1
			c-8.7-0.5-10.5,5.9-10.5,5.9c-1.8,6.4-12.2-0.6-13-4.6c-1.4-7,0.8-15.2,6.1-20c6.3-5.8,5.5-0.9,18.1-0.5c7.6,0.3,7.7-5.6,16.9,0.5
			c5.3,3.5,6.7,12.5,6.3,18.3C55.4,79.3,48.4,86,42.5,79.3z"/>
		<path fill="#F7AA4B" d="M35.8,79.3c-2.4,2.6-6.1,2.1-8.9,0.3c-1.3-0.8-2.4,1.2-1.2,2c3.6,2.3,8.5,2.7,11.6-0.7
			C38.4,79.8,36.8,78.2,35.8,79.3z"/>
		<path fill="#EF7D68" d="M31.5,67c0,0-6.7,7.7,0.5,7.7C39.2,74.7,31.5,67,31.5,67z"/>
		<circle fill="#643624" cx="21" cy="68.1" r="2.5"/>
		<circle fill="#643624" cx="41.5" cy="68.6" r="2.5"/>
		<g>
			<g>
				<g>
					<path fill="#E66B50" d="M8,109.8c0,0-3.8,1.1-6.5-3.2c-1.5-2.3-4.4-10.6,6.6-8.8L8,109.8z"/>
					<path fill="#EF7D68" d="M8,109.8c0,0,3.8,1.1,6.6-3c1.5-2.3,4.7-10.5-6.5-9L8,109.8z"/>
				</g>
				<path fill="#008E87" d="M8.1,97.8c0,0-1.8-8.3,8.3-8.7C16.4,89.1,19.5,97.4,8.1,97.8z"/>
			</g>
			<g>
				<g>
					<path fill="#E66B50" d="M41.3,109.8c0,0-3.8,1.1-6.5-3.2c-1.5-2.3-4.4-10.6,6.6-8.8L41.3,109.8z"/>
					<path fill="#EF7D68" d="M41.3,109.8c0,0,3.8,1.1,6.6-3c1.5-2.3,4.7-10.5-6.5-9L41.3,109.8z"/>
				</g>
				<path fill="#008E87" d="M41.4,97.8c0,0-1.8-8.3,8.3-8.7C49.6,89.1,52.8,97.4,41.4,97.8z"/>
			</g>
			<g>
				<g>
					<path fill="#E66B50" d="M57.9,109.8c0,0-3.8,1.1-6.5-3.2c-1.5-2.3-4.4-10.6,6.6-8.8L57.9,109.8z"/>
					<path fill="#EF7D68" d="M57.9,109.8c0,0,3.8,1.1,6.6-3c1.5-2.3,4.7-10.5-6.5-9L57.9,109.8z"/>
				</g>
				<path fill="#008E87" d="M58,97.8c0,0-1.8-8.3,8.3-8.7C66.3,89.1,69.4,97.4,58,97.8z"/>
			</g>
			<g>
				<g>
					<path fill="#E66B50" d="M24.6,111.3c0,0-4.1,1.1-7-3.4c-1.6-2.5-4.8-11.4,7.1-9.5L24.6,111.3z"/>
					<path fill="#EF7D68" d="M24.6,111.3c0,0,4.1,1.2,7.1-3.2c1.6-2.5,5-11.3-6.9-9.6L24.6,111.3z"/>
				</g>
				<path fill="#00A09B" d="M24.7,98.5c0,0-1.9-8.9,8.9-9.4C33.6,89.1,37,98,24.7,98.5z"/>
			</g>
			<rect x="0.7" y="106.5" fill="#A45F54" width="65.1" height="14"/>
			<circle fill="#FFD46A" cx="55.8" cy="118.9" r="6"/>
			<circle fill="#FFD46A" cx="9.8" cy="118.5" r="6"/>
		</g>
	</g>
</g>

</svg>
